=source_repo1/. .d..t......
=source_repo1/rsync-vlcore.sh >f+++++++++
=source_repo1/search-abs.sh >f..tp.....
=source_repo1/search-abs.sh.txt cL+++++++++
=source_repo1/search-vlabs.sh >f..tp.....
=source_repo1/search-vlabs.sh.txt cL+++++++++
=source_repo1/search.php >f..t......
=source_repo1/search.php.txt cL+++++++++
=source_repo1/var .d..t......
